<?xml version="1.0" encoding="UTF-8"?>
<svg xmlns="http://www.w3.org/2000/svg" xmlns:xlink="http://www.w3.org/1999/xlink" width="200pt" height="56pt" viewBox="0 0 200 56" version="1.1">
<defs>
<g>
<symbol overflow="visible" id="glyph0-0">
<path style="stroke:none;" d="M 4.796875 0 L 4.796875 -29.40625 L 34.203125 -29.40625 L 34.203125 0 Z M 16.203125 -14.40625 L 7.796875 -6.59375 L 11.40625 -3 L 19.203125 -11.40625 L 27.59375 -3 L 31.203125 -6.59375 L 22.796875 -14.40625 L 31.203125 -22.796875 L 27.59375 -26.40625 L 19.203125 -18 L 11.40625 -26.40625 L 7.796875 -22.796875 Z M 16.203125 -14.40625 "/>
</symbol>
<symbol overflow="visible" id="glyph0-1">
<path style="stroke:none;" d="M 3 -27 L 3 0 L 15 0 L 15 -3 L 18 -3 L 18 -6 L 21 -6 L 21 -21 L 18 -21 L 18 -24 L 15 -24 L 15 -27 Z M 9 -21 L 9 -24 L 12 -24 L 12 -21 L 15 -21 L 15 -6 L 12 -6 L 12 -3 L 9 -3 Z M 9 -21 "/>
</symbol>
<symbol overflow="visible" id="glyph0-2">
<path style="stroke:none;" d="M 6 -21 L 6 -18 L 3 -18 L 3 -3 L 6 -3 L 6 0 L 18 0 L 18 -3 L 21 -3 L 21 -18 L 18 -18 L 18 -21 Z M 9 -15 L 9 -18 L 15 -18 L 15 -3 L 9 -3 Z M 9 -15 "/>
</symbol>
<symbol overflow="visible" id="glyph0-3">
<path style="stroke:none;" d="M 3 -30 L 3 -27 L 9 -27 L 9 -3 L 3 -3 L 3 0 L 21 0 L 21 -3 L 15 -3 L 15 -30 Z M 3 -30 "/>
</symbol>
<symbol overflow="visible" id="glyph0-4">
<path style="stroke:none;" d="M 3 -21 L 3 9 L 9 9 L 9 0 L 18 0 L 18 -3 L 21 -3 L 21 -18 L 18 -18 L 18 -21 L 12 -21 L 12 -18 L 9 -18 L 9 -21 Z M 12 -15 L 12 -18 L 15 -18 L 15 -3 L 9 -3 L 9 -15 Z M 12 -15 "/>
</symbol>
<symbol overflow="visible" id="glyph0-5">
<path style="stroke:none;" d="M 3 -30 L 3 0 L 9 0 L 9 -15 L 12 -15 L 12 -18 L 15 -18 L 15 0 L 21 0 L 21 -18 L 18 -18 L 18 -21 L 12 -21 L 12 -18 L 9 -18 L 9 -30 Z M 3 -30 "/>
</symbol>
<symbol overflow="visible" id="glyph0-6">
<path style="stroke:none;" d="M 9 -30 L 9 -24 L 15 -24 L 15 -30 Z M 3 -21 L 3 -18 L 9 -18 L 9 -3 L 3 -3 L 3 0 L 21 0 L 21 -3 L 15 -3 L 15 -21 Z M 3 -21 "/>
</symbol>
<symbol overflow="visible" id="glyph0-7">
<path style="stroke:none;" d="M 3 -21 L 3 0 L 9 0 L 9 -15 L 12 -15 L 12 -18 L 15 -18 L 15 0 L 21 0 L 21 -18 L 18 -18 L 18 -21 L 12 -21 L 12 -18 L 9 -18 L 9 -21 Z M 3 -21 "/>
</symbol>
<symbol overflow="visible" id="glyph0-8">
<path style="stroke:none;" d="M 6 -21 L 6 -18 L 3 -18 L 3 -12 L 6 -12 L 6 -9 L 15 -9 L 15 -3 L 9 -3 L 9 -6 L 3 -6 L 3 -3 L 6 -3 L 6 0 L 18 0 L 18 -3 L 21 -3 L 21 -9 L 18 -9 L 18 -12 L 9 -12 L 9 -18 L 15 -18 L 15 -15 L 21 -15 L 21 -18 L 18 -18 L 18 -21 Z M 6 -21 "/>
</symbol>
</g>
</defs>
<g id="surface1">
<rect x="0" y="0" width="200" height="56" style="fill:rgb(100%,100%,100%);fill-opacity:1;stroke:none;"/>
<g style="fill:rgb(0%,0%,0%);fill-opacity:1;">
  <use xlink:href="#glyph0-1" x="4" y="40"/>
  <use xlink:href="#glyph0-2" x="28" y="40"/>
  <use xlink:href="#glyph0-3" x="52" y="40"/>
  <use xlink:href="#glyph0-4" x="76" y="40"/>
  <use xlink:href="#glyph0-5" x="100" y="40"/>
  <use xlink:href="#glyph0-6" x="124" y="40"/>
  <use xlink:href="#glyph0-7" x="148" y="40"/>
  <use xlink:href="#glyph0-8" x="172" y="40"/>
</g>
</g>
</svg>
