<?xml version="1.0" encoding="UTF-8"?>
<svg xmlns="http://www.w3.org/2000/svg" xmlns:xlink="http://www.w3.org/1999/xlink" width="40pt" height="72pt" viewBox="0 0 40 72" version="1.1">
<defs>
<g>
<symbol overflow="visible" id="glyph0-0">
<path style="stroke:none;" d="M 6.40625 0 L 6.40625 -39.203125 L 45.59375 -39.203125 L 45.59375 0 Z M 21.59375 -19.203125 L 10.40625 -8.796875 L 15.203125 -4 L 25.59375 -15.203125 L 36.796875 -4 L 41.59375 -8.796875 L 30.40625 -19.203125 L 41.59375 -30.40625 L 36.796875 -35.203125 L 25.59375 -24 L 15.203125 -35.203125 L 10.40625 -30.40625 Z M 21.59375 -19.203125 "/>
</symbol>
<symbol overflow="visible" id="glyph0-1">
<path style="stroke:none;" d="M 0 -44 L 0 8 L 32 8 L 32 -44 Z M 4 -36 L 4 -40 L 28 -40 L 28 4 L 4 4 Z M 12 -36 L 12 -32 L 8 -32 L 8 -24 L 12 -24 L 12 -32 L 20 -32 L 20 -20 L 16 -20 L 16 -16 L 12 -16 L 12 -8 L 16 -8 L 16 -16 L 20 -16 L 20 -20 L 24 -20 L 24 -32 L 20 -32 L 20 -36 Z M 12 -4 L 12 0 L 16 0 L 16 -4 Z M 12 -4 "/>
</symbol>
</g>
</defs>
<g id="surface1">
<rect x="0" y="0" width="40" height="72" style="fill:rgb(100%,100%,100%);fill-opacity:1;stroke:none;"/>
<g style="fill:rgb(0%,0%,0%);fill-opacity:1;">
  <use xlink:href="#glyph0-1" x="4" y="52"/>
</g>
</g>
</svg>
